<svg width="236" height="404" viewBox="0 0 236 404" xmlns="http://www.w3.org/2000/svg" xmlns:xlink="http://www.w3.org/1999/xlink">
    <defs>
        <style type="text/css"><![CDATA[
            path,
            circle {
                fill-rule: evenodd;
            }
            .wind {
                fill: #fff;
                stroke: currentColor;
            }
            .default > use {
                fill: #fff;
                stroke: #4A4A4A;
                color: #797979;
            }
            .hover > use {
                fill: #B2E5FF;
                color: #0af;
                stroke: currentColor;
            }
            .active > use {
                color: #0af;
                stroke: currentColor;
                fill: currentColor;
            }
        ]]></style>
        <circle id="c" cx="0" cy="0" r="4.5"/>
        <g id="sedan" transform="translate(4 5)">
            <path
                d="M9.5 21.5s-9-1-9-2.5.678-7.52.678-7.52c.178-1.646 1.61-3.356 3.217-3.793C4.395 7.687 8 6.5 11 6.5c3.5-2 5.5-3 11-4.997.185 0 6.868-.002 7.05 0C41.63 1.633 46.102 6.203 49 8c7.5 1.5 12.5 3 16 5 1 2 2.49 5.617 1 7-.586.896-5.5 1.5-5.5 1.5h-51z"/>
            <use xlink:href="#c" transform="translate(15 20)"/>
            <use xlink:href="#c" transform="translate(56 20)"/>
            <path class="wind"
                d="M19.962 8.74l10.553.727-.953-5.955c-.348-.008-.702-.012-1.062-.012-.85 0-2.63.018-3.354.052-.963.045-1.82.12-2.59.217L19.96 8.74zm-2.138-.15L16.5 8.5s-1.55-.578-2.5-1c2.052-1.368 3.402-2.736 6.93-3.464L17.824 8.59zM32.81 9.626l12.69.875 1-2s-4.657-4.233-15.138-4.91l1.448 6.035z"/>
        </g>
        <g id="hatchback" transform="translate(5 39)">
            <path
                d="M5.5 21.5s-5-2-5-3.5-.5-5 0-8c9-7 14.5-8.5 24-8.5 13 0 17.56 4.676 20.5 6.5 7.5 1.5 12.5 3 16 5 1 2 2.49 5.617 1 7-.586.896-5.5 1.5-5.5 1.5h-51z"/>
            <use xlink:href="#c" transform="translate(12 20)"/>
            <use xlink:href="#c" transform="translate(52 20)"/>
            <path class="wind"
                d="M16.958 8.747l9.55.682-.946-5.918c-.348-.008-.702-.012-1.062-.012-1.98 0-3.595.097-4.945.27l-2.597 4.977zm-2.136-.153L13.5 8.5s-1.55-.578-2.5-1c2.052-1.368 3.402-2.736 6.93-3.464l-3.108 4.558zm13.98 1L41.5 10.5l1-2s-4.657-4.233-15.138-4.91l1.44 6.003z"/>
        </g>
        <g id="touring" transform="translate(3 73)">
            <path
                d="M9.5 21.5s-9-2-9-3.5-.5-5 0-8c2.082-1.62 2.933-4.707 2.933-4.707.59-1.542 2.396-2.905 4.05-3.037 0 0 8.215-.753 15.517-.753.185 0 5.868-.002 6.05 0C41.63 1.633 46.102 6.203 49 8c7.5 1.5 12.5 3 16 5 1 2 2.49 5.617 1 7-.586.896-5.5 1.5-5.5 1.5h-51z"/>
            <use xlink:href="#c" transform="translate(15 20)"/>
            <use xlink:href="#c" transform="translate(56 20)"/>
            <path class="wind"
                d="M19.02 8.59c3.106.123 7.317.396 11.466.7l-.924-5.778c-.348-.008-.702-.012-1.062-.012-.38 0-4.033.1-8.22.256L19.02 8.59zm-2.11-.036C14.024 8.53 8.5 8.5 8.5 8.5L6 8s.5-2.5 1.5-3.5c1.505-.25 6.568-.502 11.35-.69l-1.94 4.744zm15.86.905c6.742.51 12.73 1.04 12.73 1.04l1-1.926s-4.656-4.296-15.138-4.982L32.77 9.46z"/>
        </g>
        <g id="suv" transform="translate(3 104)">
            <path
                d="M5.056 16.984c-.097 1.11-.01 2.063.444 2.516 1.5 1.5 8 2 8 2h48s4.914-.604 5.5-1.5c1.49-1.383-.5-6.5-1.5-8.5l-16-2s-5-8-13.722-8H14c-3.075 0-5.204 3.593-6.388 6.36-.155-.77-.762-1.41-1.58-1.568L4.067 5.91c-1.083-.21-2.133.502-2.342 1.574L.386 14.37c-.21 1.08.5 2.128 1.58 2.338l1.968.382c.39.076.778.032 1.122-.106z"/>
            <use xlink:href="#c" transform="translate(16.5 22.5)"/>
            <use xlink:href="#c" transform="translate(56.5 22.5)"/>
            <path class="wind"
                d="M23.967 9.58c3.003.103 6.665.253 10.11.4L33.3 3.5h-8.36l-.973 6.08zm-1.87-.062L21.5 9.5c-3.93-.112-9-1-9-1l2-5h8.8l-1.204 6.018zm13.853.545c5.24.23 9.55.437 9.55.437l1-2s-4-5-9-5h-2.6l1.05 6.563z"/>
        </g>
        <g id="cabriolet" transform="translate(4 145)">
            <path
                d="M7.5 17.5s-7-2-7-3.5-.5-3 0-6c2.1-1.632 7-2.5 10-2.5 1.5-1.5 4-2 4-2l9.5 3 1-2s1.753-.06 2 0c1.386.342 2.866 1.6 3 2 1.12 0 11.5 1 11.5 1s1.85-1 2-1c-4-4-8.84-5-8.84-5s-.903-1.444 0-1.264C41.644 1.626 44.783 4.626 47 6c7.5 1.5 12.5 2 16 4 1 2 2.49 4.617 1 6-.586.896-5.5 1.5-5.5 1.5h-51z"/>
            <use xlink:href="#c" transform="translate(14 16)"/>
            <use xlink:href="#c" transform="translate(54 16)"/>
        </g>
        <g id="cuv" transform="translate(4 173)">
            <path
                d="M7.008 4.45C5.093 5.57 3.788 6.713 1.5 9c-1 2.495-1.5 4.5-1 9C4 21 10 21.5 10 21.5h47.5s6.914-.604 7.5-1.5c1.49-1.383 0-5-1-7-3.5-2-10.5-3.5-18-5-2.94-1.824-7.5-6.5-20.5-6.5-.667 0-8.556-.024-12.5 0H5.5s-1.57.96-1 1.5c.468.444 1.5.985 2.508 1.45z"/>
            <use xlink:href="#c" transform="translate(13.5 21.5)"/>
            <use xlink:href="#c" transform="translate(54.5 21.5)"/>
            <path class="wind"
                d="M18.096 8.1l9.347.92-.88-5.508c-.35-.008-.703-.012-1.063-.012-.46 0-3.7.005-5.53.015L18.097 8.1zm-2.045-.202L12 7.5s-3.314-1.63-.5-3c1.95-.95-.105-.74 6.728-.956L16.05 7.898zM29.72 9.243L42.5 10.5l1-2s-4.657-4.233-15.138-4.91l1.356 5.653z"/>
        </g>
        <g id="coupe" transform="translate(4 208)">
            <path
                d="M16 21.5S.5 19.5.5 18v-6.01c0-1.65 1.332-3.156 2.973-3.362L12.5 7.5c6-2.5 5.5-2.5 11-4 .564-.013 4.406 0 5 0 10 0 14.56 5.176 17.5 7 7.5 1.5 15 1 19.5 4.5.5 2 1.99 4.617.5 6-.586.896-5.5.5-5.5.5H16z"/>
            <use xlink:href="#c" transform="translate(15 21)"/>
            <use xlink:href="#c" transform="translate(56 21)"/>
            <path class="wind"
                d="M27.445 5.37c1.603-.043 3.516-.042 4.805.13 3.75.5 10.25 5 10.25 5l-2 1-13.59-.97.535-5.16zm-1.506.053c-.864.038-1.44.077-1.44.077L22 9l3.45 1.15.49-4.727z"/>
        </g>
        <g id="limo" transform="translate(0 243)">
            <path
                d="M13 21.5S.5 19.5.5 18s-.5-4.5 0-7.5c2.082-1.62 8-3 8-3s4-3.5 11-5.997c.11-.04 17.368-.002 17.55 0C49.63 1.633 54.102 6.203 57 8c7.5 1.5 16 3 16 3s2.49 7.617 1 9c-.586.896-5.5 1.5-5.5 1.5H13z"/>
            <use xlink:href="#c" transform="translate(15 20)"/>
            <use xlink:href="#c" transform="translate(64 20)"/>
            <path class="wind"
                d="M28.63 9.5h9.89l-.958-5.99c-.348-.006-.7-.01-1.062-.01-.488 0-4.31-.01-7.608-.014L28.63 9.5zm-2.37 0h-.76l-7-1s-1.55-.578-2.5-1c2.717-1.81 1.058-3.674 8-4 .213-.01 1.315-.014 2.784-.015L26.26 9.5zm14.52 0H52.5l1-1.5s-3.806-3.806-14.14-4.418L40.78 9.5z"/>
        </g>
        <g id="minivan" transform="translate(3 276)">
            <path
                d="M9.5 22.5s-9-2-9-3.5-.5-5 0-8c2.082-1.62 3.077-5.652 3.077-5.652.51-1.573 2.252-3.073 3.874-3.33 0 0 8.248-1.515 15.55-1.515.185 0 9.868-.002 10.05 0C45.63.633 50.102 7.203 53 9c7.5 1.5 8.5 3 12 5 1 2 2.49 5.617 1 7-.586.896-5.5 1.5-5.5 1.5h-51z"/>
            <use xlink:href="#c" transform="translate(14 21)"/>
            <use xlink:href="#c" transform="translate(56 21)"/>
            <path class="wind"
                d="M21.327 8.742c3.325.17 7.427.42 11.427.68L32.2 2.505c-.23-.004-.464-.006-.7-.006-3.867 0-7.032.09-9.65.215l-.523 6.027zm-2.064-.1c-.604-.026-1.168-.05-1.683-.068C16.887 8.55 10.5 7.5 10.5 7.5L8 7s1.5-2.5 2.5-3.5c1.953 0 4.79-.424 10.095-.72l-1.332 5.863zm15.768.928c7.188.474 13.47.93 13.47.93l1-1.926s-4.79-5.29-15.588-5.996l1.12 6.992z"/>
        </g>
        <g id="pickup" transform="translate(4 309)">
            <path
                d="M8.5 20.5s-6.5-.5-8-2-.296-8.027-.296-8.027C.367 9.383 1.398 8.5 2.507 8.5H27.5s-.816-8 2-8h5.278C43.5.5 48.5 8.5 48.5 8.5s11 1.5 15 2c1 2 2.99 7.117 1.5 8.5-.586.896-5.5 1.5-5.5 1.5h-51z"/>
            <use xlink:href="#c" transform="translate(13.5 21.5)"/>
            <use xlink:href="#c" transform="translate(54.5 21.5)"/>
            <path class="wind" d="M33.034 8.618L31.5 8.5h-2l1-6h1.8l.734 6.118zm1.868.144L44.5 9.5l1-2s-4-5-9-5h-2.6l1.002 6.262z"/>
        </g>
        <g id="van" transform="translate(4 342)">
            <path
                d="M8.5 22.5s-6.5-.5-8-2-.296-8.027-.296-8.027c.163-1.09.513-2.843.78-3.913L2.03 4.38C2.566 2.238 4.794.5 7.004.5H28.5c2.5 0 5 1 7.278 2 8.722 0 13.722 8 13.722 8s10 2.5 14 3c1 2 2.99 6.617 1.5 8-.586.896-5.5 1-5.5 1h-51z"/>
            <use xlink:href="#c" transform="translate(13.5 22.5)"/>
            <use xlink:href="#c" transform="translate(54.5 22.5)"/>
            <path class="wind" d="M34.034 10.618L32.5 10.5h-2l1-6h1.8l.734 6.118zm1.868.144l9.598.738 1-2s-4-5-9-5h-2.6l1.002 6.262z"/>
        </g>
        <g id="bus" transform="translate(3 374)">
            <path
                d="M7.803 26.5s-4.686-.5-6.23-2C.032 23 .09 13.5.09 13.5L2.564 2.446C2.804 1.37 3.887.5 5.004.5H37.5s9.638 1.77 12 3.5c3 2 8 8 8 8s5.4 2.5 9 4.5c1.03 2 3.016 7.117 1.482 8.5-.603.896-5.658 1.5-5.658 1.5H7.804z"/>
            <use xlink:href="#c" transform="translate(16 25)"/>
            <use xlink:href="#c" transform="translate(58 25)"/>
            <path class="wind"
                d="M28.5 12.5h11.834c-.242-2.27-.48-5.038-.638-7H28.5v7zm-2 0H5l1-7h20.5v7zm16.096 0H52l1.5-2s-2.81-3.207-5.5-5h-6.212l.808 7z"/>
        </g>
    </defs>
    <g class="default">
        <use xlink:href="#sedan"/>
        <use xlink:href="#hatchback"/>
        <use xlink:href="#touring"/>
        <use xlink:href="#suv"/>
        <use xlink:href="#cabriolet"/>
        <use xlink:href="#cuv"/>
        <use xlink:href="#coupe"/>
        <use xlink:href="#limo"/>
        <use xlink:href="#minivan"/>
        <use xlink:href="#pickup"/>
        <use xlink:href="#van"/>
        <use xlink:href="#bus"/>
    </g>
    <g class="hover" transform="translate(80 0)">
        <use xlink:href="#sedan"/>
        <use xlink:href="#hatchback"/>
        <use xlink:href="#touring"/>
        <use xlink:href="#suv"/>
        <use xlink:href="#cabriolet"/>
        <use xlink:href="#cuv"/>
        <use xlink:href="#coupe"/>
        <use xlink:href="#limo"/>
        <use xlink:href="#minivan"/>
        <use xlink:href="#pickup"/>
        <use xlink:href="#van"/>
        <use xlink:href="#bus"/>
    </g>
    <g class="active" transform="translate(160 0)">
        <use xlink:href="#sedan"/>
        <use xlink:href="#hatchback"/>
        <use xlink:href="#touring"/>
        <use xlink:href="#suv"/>
        <use xlink:href="#cabriolet"/>
        <use xlink:href="#cuv"/>
        <use xlink:href="#coupe"/>
        <use xlink:href="#limo"/>
        <use xlink:href="#minivan"/>
        <use xlink:href="#pickup"/>
        <use xlink:href="#van"/>
        <use xlink:href="#bus"/>
    </g>
</svg>